{
    "score": "69.86",
    "comments": "\n-----------\nPart A Test Case 1\n  Expected Location: (-0.018111813309405367, 1.0033250808585503)\n  SLAM Location: (-0.0733925735798664, 0.9945230146172879)\n  Credit: 100%\n\n-----------\nPart A Test Case 2\n  Expected Location: (1.974104205912167, 1.0246089397709777)\n  SLAM Location: (2.0382819029777, 1.0030620829495138)\n  Credit: 100%\n\n-----------\nPart A Test Case 3\n  Expected Location: (0.9992686715434056, -0.0003740334152315672)\n  SLAM Location: (0.9751409785520195, -0.005148112984418418)\n  Credit: 100%\n\n-----------\nPart A Test Case 4\n  Expected Location: (-1.0501255407304209, -0.04329750864266102)\n  SLAM Location: (-0.9966604118604128, -0.04556428705942972)\n  Credit: 100%\n\n-----------\nPart A Test Case 5\n  Failed: Distance greater than tolerance 0.1\n  Expected Location: (3.217505627837194, 4.861639378259903)\n  SLAM Location: (2.9561250784039377, 4.990797207729731)\n  Credit: 0.0\n\n-----------\nPart A Test Case 6\n  Failed: Distance greater than tolerance 0.1\n  Expected Location: (-5.297210368055002, -0.20523470917493736)\n  SLAM Location: (-5.18257387089063, -0.0827001793185147)\n  Credit: 0.0\n\n-----------\nPart B Test Case 1\n  Expected locations: [(1.5, -1.5), (5.0, -3.5)]\n  Reached locations: [(5.0, -3.5), (1.5, -1.5)]\n  Credit: 100%\n\n-----------\nPart B Test Case 2\n  Expected locations: [(4.5, -4.5), (1.5, -2.0)]\n  Reached locations: [(4.5, -4.5), (1.5, -2.0)]\n  Credit: 100%\n\n-----------\nPart B Test Case 3\n  Expected locations: [(5.5, -2.0), (4.5, -4.5)]\n  Reached locations: [(4.5, -4.5), (5.5, -2.0)]\n  Credit: 100%\n\n-----------\nPart B Test Case 4\n  Expected locations: [(5.5, -1.5), (7.0, -2.5)]\n  Reached locations: [(5.5, -1.5), (7.0, -2.5)]\n  Credit: 100%\n\n-----------\nPart B Test Case 5\n  Expected locations: [(1.5, -2.5), (5.5, -2.5)]\n  Reached locations: [(1.5, -2.5), (5.5, -2.5)]\n  Credit: 100%\n\n-----------\nPart B Test Case 6\n  Failed: Test aborted due to timeout. Test was expected to finish in fewer than 5 second(s).\n  Credit: 0.0\n\n-----------\nPart B Test Case 7\n  Failed: Test aborted due to timeout. Test was expected to finish in fewer than 5 second(s).\n  Credit: 0.0\npart A score: 66.67\npart B score: 71.43\nscore: 69.86\n"
}