{
    "score": "56.21",
    "comments": "\n-----------\nPart A Test Case 1\n  Expected Location: (0.015910189601204383, 0.9968125581044225)\n  SLAM Location: (-0.00556556135453512, 1.0053758066336655)\n  Credit: 100%\n\n-----------\nPart A Test Case 2\n  Expected Location: (1.9862936906481945, 0.9993126207270857)\n  SLAM Location: (1.9696570985977342, 0.9838252695564069)\n  Credit: 100%\n\n-----------\nPart A Test Case 3\n  Expected Location: (0.9891784986267735, 0.01957300123608907)\n  SLAM Location: (0.9907429488972639, -0.023791735776747203)\n  Credit: 100%\n\n-----------\nPart A Test Case 4\n  Expected Location: (-1.0620809821827883, -0.07041837838048925)\n  SLAM Location: (-1.0237923299563523, -0.0814861392409405)\n  Credit: 100%\n\n-----------\nPart A Test Case 5\n  Failed: Distance greater than tolerance 0.1\n  Expected Location: (2.821649118550522, 5.038462649087861)\n  SLAM Location: (3.0110408782155247, 4.887591408331818)\n  Credit: 0.0\n\n-----------\nPart A Test Case 6\n  Expected Location: (-5.570261379173453, -0.26929828038171966)\n  SLAM Location: (-5.515981817493778, -0.20098598383314226)\n  Credit: 100%\n\n-----------\nPart B Test Case 1\n  Failed: Test aborted due to timeout. Test was expected to finish in fewer than 5 second(s).\n  Credit: 0.0\n\n-----------\nPart B Test Case 2\n  Failed: Test aborted due to timeout. Test was expected to finish in fewer than 5 second(s).\n  Credit: 0.0\n\n-----------\nPart B Test Case 3\n  Expected locations: [(5.5, -2.0), (4.5, -4.5)]\n  Reached locations: [(4.5, -4.5), (5.5, -2.0)]\n  Credit: 100%\n\n-----------\nPart B Test Case 4\n  Expected locations: [(5.5, -1.5), (7.0, -2.5)]\n  Reached locations: [(5.5, -1.5), (7.0, -2.5)]\n  Credit: 100%\n\n-----------\nPart B Test Case 5\n  Expected locations: [(1.5, -2.5), (5.5, -2.5)]\n  Reached locations: [(1.5, -2.5), (5.5, -2.5)]\n  Credit: 100%\n\n-----------\nPart B Test Case 6\n  Failed: Test aborted due to timeout. Test was expected to finish in fewer than 5 second(s).\n  Credit: 0.0\n\n-----------\nPart B Test Case 7\n  Failed: Test aborted due to timeout. Test was expected to finish in fewer than 5 second(s).\n  Credit: 0.0\npart A score: 83.33\npart B score: 42.86\nscore: 56.21\n"
}