{
    "score": "90.43",
    "comments": "\n-----------\nPart A Test Case 1\n  Expected Location: (-0.00423086006595863, 1.0121082494888385)\n  SLAM Location: (0.0005644447317347812, 0.9791313833107598)\n  Credit: 100%\n\n-----------\nPart A Test Case 2\n  Expected Location: (2.0078972645649005, 0.979718086207912)\n  SLAM Location: (1.9621207500660782, 0.9916967142335462)\n  Credit: 100%\n\n-----------\nPart A Test Case 3\n  Expected Location: (0.9957706094687695, 0.004971160695624199)\n  SLAM Location: (0.9672242277344703, 0.015737774971248175)\n  Credit: 100%\n\n-----------\nPart A Test Case 4\n  Expected Location: (-1.074328206587504, -0.05694739410701466)\n  SLAM Location: (-1.1252539827494852, -0.09535879730864227)\n  Credit: 100%\n\n-----------\nPart A Test Case 5\n  Expected Location: (2.8727133116423893, 5.015722350432541)\n  SLAM Location: (2.9107230038819907, 4.9800348144923134)\n  Credit: 100%\n\n-----------\nPart A Test Case 6\n  Expected Location: (-5.613011876962882, -0.2553747005918616)\n  SLAM Location: (-5.598244880582648, -0.205328189178843)\n  Credit: 100%\n\n-----------\nPart B Test Case 1\n  Expected locations: [(1.5, -1.5), (5.0, -3.5)]\n  Reached locations: [(5.0, -3.5), (1.5, -1.5)]\n  Credit: 100%\n\n-----------\nPart B Test Case 2\n  Expected locations: [(4.5, -4.5), (1.5, -2.0)]\n  Reached locations: [(4.5, -4.5), (1.5, -2.0)]\n  Credit: 100%\n\n-----------\nPart B Test Case 3\n  Expected locations: [(5.5, -2.0), (4.5, -4.5)]\n  Reached locations: [(4.5, -4.5), (5.5, -2.0)]\n  Credit: 100%\n\n-----------\nPart B Test Case 4\n  Expected locations: [(5.5, -1.5), (7.0, -2.5)]\n  Reached locations: [(5.5, -1.5), (7.0, -2.5)]\n  Credit: 100%\n\n-----------\nPart B Test Case 5\n  Expected locations: [(1.5, -2.5), (5.5, -2.5)]\n  Reached locations: [(5.5, -2.5), (1.5, -2.5)]\n  Credit: 100%\n\n-----------\nPart B Test Case 6\n  Expected locations: [(0.5, -0.5), (1.5, -0.5), (3.5, -0.5), (1.5, -1.5), (5.5, -1.5), (0.5, -3.5), (4.5, -4.5), (6.5, -0.5), (0.5, -4.5), (6.5, -4.5)]\n  Reached locations: [(0.5, -0.5), (1.5, -0.5), (1.5, -1.5), (3.5, -0.5), (5.5, -1.5), (6.5, -0.5), (6.5, -4.5), (4.5, -4.5), (0.5, -3.5), (0.5, -4.5)]\n  Credit: 100%\n\n-----------\nPart B Test Case 7\n  Failed: Test aborted due to timeout. Test was expected to finish in fewer than 5 second(s).\n  Credit: 0.0\npart A score: 100.00\npart B score: 85.71\nscore: 90.43\n"
}