{
    "score": "75.36",
    "comments": "\n-----------\nPart A Test Case 1\n  Expected Location: (0.0033647332004416164, 0.9921894882286928)\n  SLAM Location: (-0.00258216008609935, 0.9678070652512734)\n  Credit: 100%\n\n-----------\nPart A Test Case 2\n  Expected Location: (1.9959182467369816, 0.9847262418765546)\n  SLAM Location: (2.028809903186416, 1.0696841717573236)\n  Credit: 100%\n\n-----------\nPart A Test Case 3\n  Expected Location: (0.9835644350028678, -0.010617351544438103)\n  SLAM Location: (0.9504879864193541, 0.032435244545659714)\n  Credit: 100%\n\n-----------\nPart A Test Case 4\n  Expected Location: (-1.0617799641706736, -0.05626151485927333)\n  SLAM Location: (-1.0623631699291272, -0.06613598999049541)\n  Credit: 100%\n\n-----------\nPart A Test Case 5\n  Expected Location: (2.9590111153025696, 4.946929675911919)\n  SLAM Location: (2.973947090194507, 4.982067859523271)\n  Credit: 100%\n\n-----------\nPart A Test Case 6\n  Failed: Distance greater than tolerance 0.1\n  Expected Location: (-5.401156388918323, -0.00784986215303185)\n  SLAM Location: (-5.161082000319187, -0.059232382312199405)\n  Credit: 0.0\n\n-----------\nPart B Test Case 1\n  Expected locations: [(1.5, -1.5), (5.0, -3.5)]\n  Reached locations: [(5.0, -3.5), (1.5, -1.5)]\n  Credit: 100%\n\n-----------\nPart B Test Case 2\n  Expected locations: [(4.5, -4.5), (1.5, -2.0)]\n  Reached locations: [(4.5, -4.5), (1.5, -2.0)]\n  Credit: 100%\n\n-----------\nPart B Test Case 3\n  Expected locations: [(5.5, -2.0), (4.5, -4.5)]\n  Reached locations: [(4.5, -4.5), (5.5, -2.0)]\n  Credit: 100%\n\n-----------\nPart B Test Case 4\n  Expected locations: [(5.5, -1.5), (7.0, -2.5)]\n  Reached locations: [(5.5, -1.5), (7.0, -2.5)]\n  Credit: 100%\n\n-----------\nPart B Test Case 5\n  Expected locations: [(1.5, -2.5), (5.5, -2.5)]\n  Reached locations: [(1.5, -2.5), (5.5, -2.5)]\n  Credit: 100%\n\n-----------\nPart B Test Case 6\n  Failed: Test aborted due to timeout. Test was expected to finish in fewer than 5 second(s).\n  Credit: 0.0\n\n-----------\nPart B Test Case 7\n  Failed: Test aborted due to timeout. Test was expected to finish in fewer than 5 second(s).\n  Credit: 0.0\npart A score: 83.33\npart B score: 71.43\nscore: 75.36\n"
}