{
    "score": "80.86",
    "comments": "\n-----------\nPart A Test Case 1\n  Expected Location: (-0.025422885002923667, 1.0113656953923993)\n  SLAM Location: (-0.03392866572060349, 1.0134251807632815)\n  Credit: 100%\n\n-----------\nPart A Test Case 2\n  Expected Location: (1.9908874906293903, 0.9918631076064193)\n  SLAM Location: (1.9844233587851248, 0.9750842614262432)\n  Credit: 100%\n\n-----------\nPart A Test Case 3\n  Expected Location: (1.0026763682039275, -0.018823924232660216)\n  SLAM Location: (0.9776329263171393, -0.01943166302619037)\n  Credit: 100%\n\n-----------\nPart A Test Case 4\n  Expected Location: (-1.04977633238241, -0.03655922181867144)\n  SLAM Location: (-1.0545514729820873, -0.0422931142478471)\n  Credit: 100%\n\n-----------\nPart A Test Case 5\n  Expected Location: (2.867429509630214, 4.981426243576348)\n  SLAM Location: (2.875393343313542, 4.905377065029542)\n  Credit: 100%\n\n-----------\nPart A Test Case 6\n  Expected Location: (-5.541952817622736, -0.2796523626873908)\n  SLAM Location: (-5.5358186139386385, -0.3207189190072839)\n  Credit: 100%\n\n-----------\nPart B Test Case 1\n  Expected locations: [(1.5, -1.5), (5.0, -3.5)]\n  Reached locations: [(5.0, -3.5), (1.5, -1.5)]\n  Credit: 100%\n\n-----------\nPart B Test Case 2\n  Expected locations: [(4.5, -4.5), (1.5, -2.0)]\n  Reached locations: [(4.5, -4.5), (1.5, -2.0)]\n  Credit: 100%\n\n-----------\nPart B Test Case 3\n  Expected locations: [(5.5, -2.0), (4.5, -4.5)]\n  Reached locations: [(4.5, -4.5), (5.5, -2.0)]\n  Credit: 100%\n\n-----------\nPart B Test Case 4\n  Expected locations: [(5.5, -1.5), (7.0, -2.5)]\n  Reached locations: [(5.5, -1.5), (7.0, -2.5)]\n  Credit: 100%\n\n-----------\nPart B Test Case 5\n  Expected locations: [(1.5, -2.5), (5.5, -2.5)]\n  Reached locations: [(5.5, -2.5), (1.5, -2.5)]\n  Credit: 100%\n\n-----------\nPart B Test Case 6\n  Failed: Test aborted due to timeout. Test was expected to finish in fewer than 5 second(s).\n  Credit: 0.0\n\n-----------\nPart B Test Case 7\n  Failed: Test aborted due to timeout. Test was expected to finish in fewer than 5 second(s).\n  Credit: 0.0\npart A score: 100.00\npart B score: 71.43\nscore: 80.86\n"
}