{
    "score": "79.43",
    "comments": "\n-----------\nPart A Test Case 1\n  Expected Location: (0.023210916709313967, 1.003130203818801)\n  SLAM Location: (0.0635676209639513, 0.9712313643640282)\n  Credit: 100%\n\n-----------\nPart A Test Case 2\n  Expected Location: (2.0081170201504595, 0.9836430670178244)\n  SLAM Location: (1.9304404364640702, 0.943250112928677)\n  Credit: 100%\n\n-----------\nPart A Test Case 3\n  Expected Location: (0.9957965109845346, 0.02403550896465756)\n  SLAM Location: (0.9832127369890369, 0.06694331021026922)\n  Credit: 100%\n\n-----------\nPart A Test Case 4\n  Expected Location: (-1.0827328279648691, -0.0729579846688233)\n  SLAM Location: (-1.0902472030268626, -0.0716721576691457)\n  Credit: 100%\n\n-----------\nPart A Test Case 5\n  Failed: Distance greater than tolerance 0.1\n  Expected Location: (3.320383404313591, 4.836423894230697)\n  SLAM Location: (3.058979587573095, 5.005508678527609)\n  Credit: 0.0\n\n-----------\nPart A Test Case 6\n  Failed: Distance greater than tolerance 0.1\n  Expected Location: (-5.604278626450848, -0.3658794691659413)\n  SLAM Location: (-5.6139666800410835, -0.24012799382103012)\n  Credit: 0.0\n\n-----------\nPart B Test Case 1\n  Expected locations: [(1.5, -1.5), (5.0, -3.5)]\n  Reached locations: [(5.0, -3.5), (1.5, -1.5)]\n  Credit: 100%\n\n-----------\nPart B Test Case 2\n  Expected locations: [(4.5, -4.5), (1.5, -2.0)]\n  Reached locations: [(4.5, -4.5), (1.5, -2.0)]\n  Credit: 100%\n\n-----------\nPart B Test Case 3\n  Expected locations: [(5.5, -2.0), (4.5, -4.5)]\n  Reached locations: [(4.5, -4.5), (5.5, -2.0)]\n  Credit: 100%\n\n-----------\nPart B Test Case 4\n  Expected locations: [(5.5, -1.5), (7.0, -2.5)]\n  Reached locations: [(5.5, -1.5), (7.0, -2.5)]\n  Credit: 100%\n\n-----------\nPart B Test Case 5\n  Expected locations: [(1.5, -2.5), (5.5, -2.5)]\n  Reached locations: [(1.5, -2.5), (5.5, -2.5)]\n  Credit: 100%\n\n-----------\nPart B Test Case 6\n  Expected locations: [(0.5, -0.5), (1.5, -0.5), (3.5, -0.5), (1.5, -1.5), (5.5, -1.5), (0.5, -3.5), (4.5, -4.5), (6.5, -0.5), (0.5, -4.5), (6.5, -4.5)]\n  Reached locations: [(0.5, -0.5), (1.5, -0.5), (1.5, -1.5), (0.5, -3.5), (0.5, -4.5), (3.5, -0.5), (5.5, -1.5), (6.5, -0.5), (4.5, -4.5), (6.5, -4.5)]\n  Credit: 100%\n\n-----------\nPart B Test Case 7\n  Failed: Test aborted due to timeout. Test was expected to finish in fewer than 5 second(s).\n  Credit: 0.0\npart A score: 66.67\npart B score: 85.71\nscore: 79.43\n"
}