{
    "score": "79.43",
    "comments": "\n-----------\nPart A Test Case 1\n  Expected Location: (0.009673658183468437, 0.9950253501295268)\n  SLAM Location: (-0.01425501018396047, 0.9965281661601382)\n  Credit: 100%\n\n-----------\nPart A Test Case 2\n  Expected Location: (1.9954473371725356, 0.999653886273931)\n  SLAM Location: (1.9973039583132934, 0.9870375620144656)\n  Credit: 100%\n\n-----------\nPart A Test Case 3\n  Expected Location: (1.0113168882823347, -0.007711719563582964)\n  SLAM Location: (0.9942633763826034, -0.0007556680903219037)\n  Credit: 100%\n\n-----------\nPart A Test Case 4\n  Expected Location: (-1.0819251029255312, -0.07002604592361505)\n  SLAM Location: (-1.0765239014006123, -0.05192210599346869)\n  Credit: 100%\n\n-----------\nPart A Test Case 5\n  Failed: Distance greater than tolerance 0.1\n  Expected Location: (3.123711116745082, 4.930823861359985)\n  SLAM Location: (2.9039813019749783, 4.988896275906286)\n  Credit: 0.0\n\n-----------\nPart A Test Case 6\n  Failed: Distance greater than tolerance 0.1\n  Expected Location: (-5.688003430524242, 0.20365806235132577)\n  SLAM Location: (-5.604544042063857, -0.08339878104855991)\n  Credit: 0.0\n\n-----------\nPart B Test Case 1\n  Expected locations: [(1.5, -1.5), (5.0, -3.5)]\n  Reached locations: [(5.0, -3.5), (1.5, -1.5)]\n  Credit: 100%\n\n-----------\nPart B Test Case 2\n  Expected locations: [(4.5, -4.5), (1.5, -2.0)]\n  Reached locations: [(4.5, -4.5), (1.5, -2.0)]\n  Credit: 100%\n\n-----------\nPart B Test Case 3\n  Expected locations: [(5.5, -2.0), (4.5, -4.5)]\n  Reached locations: [(4.5, -4.5), (5.5, -2.0)]\n  Credit: 100%\n\n-----------\nPart B Test Case 4\n  Expected locations: [(5.5, -1.5), (7.0, -2.5)]\n  Reached locations: [(5.5, -1.5), (7.0, -2.5)]\n  Credit: 100%\n\n-----------\nPart B Test Case 5\n  Expected locations: [(1.5, -2.5), (5.5, -2.5)]\n  Reached locations: [(1.5, -2.5), (5.5, -2.5)]\n  Credit: 100%\n\n-----------\nPart B Test Case 6\n  Expected locations: [(0.5, -0.5), (1.5, -0.5), (3.5, -0.5), (1.5, -1.5), (5.5, -1.5), (0.5, -3.5), (4.5, -4.5), (6.5, -0.5), (0.5, -4.5), (6.5, -4.5)]\n  Reached locations: [(0.5, -0.5), (1.5, -0.5), (1.5, -1.5), (3.5, -0.5), (5.5, -1.5), (6.5, -0.5), (6.5, -4.5), (4.5, -4.5), (0.5, -4.5), (0.5, -3.5)]\n  Credit: 100%\n\n-----------\nPart B Test Case 7\n  Failed: Test aborted due to timeout. Test was expected to finish in fewer than 5 second(s).\n  Credit: 0.0\npart A score: 66.67\npart B score: 85.71\nscore: 79.43\n"
}