{
    "score": "69.86",
    "comments": "\n-----------\nPart A Test Case 1\n  Expected Location: (0.00035428674104887037, 1.018041159462221)\n  SLAM Location: (0.007523523993118175, 0.9862797806603236)\n  Credit: 100%\n\n-----------\nPart A Test Case 2\n  Expected Location: (1.9833619715873372, 1.0128823683114385)\n  SLAM Location: (1.9816180819465803, 0.9921299190266595)\n  Credit: 100%\n\n-----------\nPart A Test Case 3\n  Expected Location: (1.0185073325731602, -0.007106424351431606)\n  SLAM Location: (0.983727481441445, 0.04416889726717699)\n  Credit: 100%\n\n-----------\nPart A Test Case 4\n  Expected Location: (-1.0616284198559622, -0.05036826773606773)\n  SLAM Location: (-1.0426941145493167, -0.06060336074208994)\n  Credit: 100%\n\n-----------\nPart A Test Case 5\n  Failed: Distance greater than tolerance 0.1\n  Expected Location: (3.200026653339351, 4.880642052248404)\n  SLAM Location: (3.0817332934782034, 4.9315840095069206)\n  Credit: 0.0\n\n-----------\nPart A Test Case 6\n  Failed: Distance greater than tolerance 0.1\n  Expected Location: (-5.6626425352042675, -0.05294548382572817)\n  SLAM Location: (-5.5206992088404485, -0.17870638132093575)\n  Credit: 0.0\n\n-----------\nPart B Test Case 1\n  Expected locations: [(1.5, -1.5), (5.0, -3.5)]\n  Reached locations: [(5.0, -3.5), (1.5, -1.5)]\n  Credit: 100%\n\n-----------\nPart B Test Case 2\n  Expected locations: [(4.5, -4.5), (1.5, -2.0)]\n  Reached locations: [(4.5, -4.5), (1.5, -2.0)]\n  Credit: 100%\n\n-----------\nPart B Test Case 3\n  Expected locations: [(5.5, -2.0), (4.5, -4.5)]\n  Reached locations: [(4.5, -4.5), (5.5, -2.0)]\n  Credit: 100%\n\n-----------\nPart B Test Case 4\n  Expected locations: [(5.5, -1.5), (7.0, -2.5)]\n  Reached locations: [(5.5, -1.5), (7.0, -2.5)]\n  Credit: 100%\n\n-----------\nPart B Test Case 5\n  Expected locations: [(1.5, -2.5), (5.5, -2.5)]\n  Reached locations: [(5.5, -2.5), (1.5, -2.5)]\n  Credit: 100%\n\n-----------\nPart B Test Case 6\n  Failed: Test aborted due to timeout. Test was expected to finish in fewer than 5 second(s).\n  Credit: 0.0\n\n-----------\nPart B Test Case 7\n  Failed: Test aborted due to timeout. Test was expected to finish in fewer than 5 second(s).\n  Credit: 0.0\npart A score: 66.67\npart B score: 71.43\nscore: 69.86\n"
}