{
    "score": "100.0",
    "comments": "\n-------------------------------------------\nMaintaining Turbopump Pressure PD \n\nPart A Completion: 100.0%\nPoints Earned: 25.0\n\n-------------------------------------------\nRocket Launch with PID controlled Throttle\n\nYou Landed in the student tester!\n\nOptimal Flight Score: 65\nLanding Score: 35\n\nPart B Completion: 100%\nPoints Earned: 75.0\n\n Final Score: 100.0"
}