{
    "score": "93.25",
    "comments": "\n-------------------------------------------\nMaintaining Turbopump Pressure PD \n\nPart A Completion: 100.0%\nPoints Earned: 25.0\n\n-------------------------------------------\nRocket Launch with PID controlled Throttle\n\nYou Landed in the student tester!\n\nOptimal Flight Score: 56\nLanding Score: 35\n\nPart B Completion: 91%\nPoints Earned: 68.25\n\n Final Score: 93.25"
}